10 Local Measures of Spatial Autocorrelation – R for Geospatial Data Science and Analytics
…
HCSA_fdw <- wm_fd %>% 
  mutate(local_Gi = local_gstar_perm(
    GDPPC, nb, wts, nsim = 99),
         .before = 1) %>%
  unnest(local_Gi)
HCSA_fdw

Simple feature collection with 88 features and 18 fields
Geometry type: POLYGON
Dimension:     XY
Bounding box:  xmin: -316283 ymin: 2735534 xmax: 230955.3 ymax: 3349137
Projected CRS: WGS 84 / UTM zone 50N
# A tibble: 88 × 19
   gi_star cluster   e_gi     var_gi std_dev p_value p_sim p_folded_sim skewness
     <dbl> <fct>    <dbl>      <dbl>   <dbl>   <dbl> <dbl>        <dbl>    <dbl>
 1  0.383  Low     0.0114 0.00000542   0.448 6.54e-1  0.72         0.36    1.00 
 2 -0.273  Low     0.0115 0.0000102   -0.324 7.46e-1  0.9          0.45    1.38 
 3  0.364  High    0.0119 0.00000557   0.293 7.70e-1  0.64         0.32    0.691
 4  0.411  High    0.0119 0.00000876   0.237 8.13e-1  0.76         0.38    0.776
 5  0.217  High    0.0111 0.00000626   0.337 7.36e-1  0.68         0.34    0.846
 6 -0.0594 High    0.0117 0.00000762  -0.180 8.57e-1  0.92         0.46    0.915
 7  4.91   High    0.0206 0.0000145    3.88  1.05e-4  0.06         0.04    2.21 
 8  3.54   High    0.0150 0.00000614   2.88  4.00e-3  0.04         0.02    0.545
 9  5.81   High    0.0154 0.00000642   5.36  8.12e-8  0.02         0.01    1.18 
10 -0.195  Low     0.0105 0.00000821   0.122 9.03e-1  0.72         0.36    1.18 
# ℹ 78 more rows
# ℹ 10 more variables: kurtosis <dbl>, nb <nb>, wts <list>, NAME_2 <chr>,
#   ID_3 <int>, NAME_3 <chr>, ENGTYPE_3 <chr>, County <chr>, GDPPC <dbl>,
#   geometry <POLYGON [m]>
…
HCSA_adw <- wm_ad %>% 
  mutate(local_Gi = local_gstar_perm(
    GDPPC, nb, wts, nsim = 99),
         .before = 1) %>%
  unnest(local_Gi)
HCSA_adw

Simple feature collection with 88 features and 18 fields
Geometry type: POLYGON
Dimension:     XY
Bounding box:  xmin: -316283 ymin: 2735534 xmax: 230955.3 ymax: 3349137
Projected CRS: WGS 84 / UTM zone 50N
# A tibble: 88 × 19
    gi_star cluster   e_gi    var_gi std_dev p_value p_sim p_folded_sim skewness
      <dbl> <fct>    <dbl>     <dbl>   <dbl>   <dbl> <dbl>        <dbl>    <dbl>
 1  0.328   Low     0.0111   4.69e-6  0.455  6.49e-1  0.6          0.3     0.622
 2  1.07    Low     0.0108   4.07e-6  1.44   1.49e-1  0.16         0.08    0.742
 3  0.267   High    0.0118   4.12e-6  0.0825 9.34e-1  0.76         0.38    0.678
 4  0.213   High    0.0113   5.06e-6  0.232  8.16e-1  0.78         0.39    0.449
 5 -0.00787 High    0.0117   5.73e-6 -0.142  8.87e-1  0.92         0.46    0.493
 6 -0.165   High    0.0111   3.67e-6 -0.0753 9.40e-1  0.96         0.48    0.598
 7  4.52    High    0.0134   4.63e-6  3.68   2.37e-4  0.02         0.01    0.703
 8  2.39    High    0.0133   4.93e-6  1.51   1.30e-1  0.2          0.1     0.898
 9  4.92    High    0.0138   4.10e-6  4.14   3.41e-5  0.02         0.01    0.235
10  1.16    Low     0.0107   4.87e-6  1.45   1.46e-1  0.26         0.13    0.697
# ℹ 78 more rows
# ℹ 10 more variables: kurtosis <dbl>, nb <nb>, wts <list>, NAME_2 <chr>,
#   ID_3 <int>, NAME_3 <chr>, ENGTYPE_3 <chr>, County <chr>, GDPPC <dbl>,
#   geometry <POLYGON [m]>
…
