R for Geospatial Data Science and Analytics - 1 Geospatial Data Wrangling with R
…
1.8.1 Importing the aspatial data

Since listings data set is in csv file format, we will use read_csv() of readr package to import listing.csv as shown the code chunk below. The output R object is called listings and it is a tibble data frame.

listings <- read_csv("chap01/data/aspatial/listings.csv")

After importing the data file into R, it is important for us to examine if the data file has been imported correctly.

The code chunk below shows list() of Base R instead of glimpse() is used to do the job.

list(listings) 

[[1]]
# A tibble: 4,252 × 16
       id name     host_id host_…¹ neigh…² neigh…³ latit…⁴ longi…⁵ room_…⁶ price
    <dbl> <chr>      <dbl> <chr>   <chr>   <chr>     <dbl>   <dbl> <chr>   <dbl>
 1  50646 Pleasan…  227796 Sujatha Centra… Bukit …    1.33    104. Privat…    80
 2  71609 Ensuite…  367042 Belinda East R… Tampin…    1.35    104. Privat…   178
 3  71896 B&B  Ro…  367042 Belinda East R… Tampin…    1.35    104. Privat…    81
 4  71903 Room 2-…  367042 Belinda East R… Tampin…    1.35    104. Privat…    81
 5 275343 Conveni… 1439258 Joyce   Centra… Bukit …    1.29    104. Privat…    52
 6 275344 15 mins… 1439258 Joyce   Centra… Bukit …    1.29    104. Privat…    40
 7 294281 5 mins … 1521514 Elizab… Centra… Newton     1.31    104. Privat…    72
 8 301247 Nice ro… 1552002 Rahul   Centra… Geylang    1.32    104. Privat…    41
 9 324945 20 Mins… 1439258 Joyce   Centra… Bukit …    1.29    104. Privat…    49
10 330089 Accomo@… 1439258 Joyce   Centra… Bukit …    1.29    104. Privat…    49
# … with 4,242 more rows, 6 more variables: minimum_nights <dbl>,
#   number_of_reviews <dbl>, last_review <date>, reviews_per_month <dbl>,
#   calculated_host_listings_count <dbl>, availability_365 <dbl>, and
#   abbreviated variable names ¹​host_name, ²​neighbourhood_group,
#   ³​neighbourhood, ⁴​latitude, ⁵​longitude, ⁶​room_type
…
